module gitlab.com/singvivc/bookstore_oauth-api

go 1.14

require (
	github.com/gin-gonic/gin v1.6.2
	github.com/gocql/gocql v0.0.0-20200410100145-b454769479c6
	github.com/mercadolibre/golang-restclient v0.0.0-20170701022150-51958130a0a0
	github.com/stretchr/testify v1.5.1
	gitlab.com/singvivc/bookstore_utils-go v0.0.0-20200420184029-e24e781b3683
)
